EESchema Schematic File Version 2
LIBS:power
LIBS:device
LIBS:transistors
LIBS:conn
LIBS:linear
LIBS:regul
LIBS:74xx
LIBS:cmos4000
LIBS:adc-dac
LIBS:memory
LIBS:xilinx
LIBS:microcontrollers
LIBS:dsp
LIBS:microchip
LIBS:analog_switches
LIBS:motorola
LIBS:texas
LIBS:intel
LIBS:audio
LIBS:interface
LIBS:digital-audio
LIBS:philips
LIBS:display
LIBS:cypress
LIBS:siliconi
LIBS:opto
LIBS:atmel
LIBS:contrib
LIBS:valves
LIBS:pcf8577-display-module-cache
EELAYER 25 0
EELAYER END
$Descr A4 8268 11693 portrait
encoding utf-8
Sheet 1 1
Title ""
Date ""
Rev ""
Comp ""
Comment1 ""
Comment2 ""
Comment3 ""
Comment4 ""
$EndDescr
$Comp
L PCF8577 U2
U 1 1 579CE39A
P 4750 6950
F 0 "U2" H 4850 6950 50  0000 C CNN
F 1 "PCF8577" H 4850 6450 50  0000 C CNN
F 2 "Housings_DIP:DIP-40_W15.24mm" H 4750 6950 50  0001 C CNN
F 3 "" H 4750 6950 50  0000 C CNN
	1    4750 6950
	0    1    1    0   
$EndComp
$Comp
L R R1
U 1 1 579CF101
P 5000 8450
F 0 "R1" V 4900 8450 50  0000 C CNN
F 1 "1M" V 5000 8450 50  0000 C CNN
F 2 "Resistors_ThroughHole:Resistor_Horizontal_RM10mm" V 4930 8450 50  0001 C CNN
F 3 "" H 5000 8450 50  0000 C CNN
	1    5000 8450
	-1   0    0    1   
$EndComp
$Comp
L C C1
U 1 1 579CF24F
P 5000 8950
F 0 "C1" H 5050 8850 50  0000 L CNN
F 1 "1nF" H 4800 9050 50  0000 L CNN
F 2 "Capacitors_ThroughHole:C_Rect_L7_W2_P5" H 5038 8800 50  0001 C CNN
F 3 "" H 5000 8950 50  0000 C CNN
	1    5000 8950
	-1   0    0    1   
$EndComp
$Comp
L VI-402-DP U1
U 1 1 579D055A
P 2500 1450
F 0 "U1" H 4500 400 60  0000 C CNN
F 1 "VI-402-DP" H 4000 400 60  0000 C CNN
F 2 "myDipSockets:DIP-40_W33mm" H 4950 -950 60  0001 C CNN
F 3 "" H 4950 -950 60  0000 C CNN
	1    2500 1450
	1    0    0    -1  
$EndComp
NoConn ~ 4600 7750
NoConn ~ 4800 7750
NoConn ~ 3400 4500
NoConn ~ 3500 4500
NoConn ~ 3600 4500
NoConn ~ 3400 1950
NoConn ~ 4000 1950
$Comp
L CONN_01X04 P1
U 1 1 579DBB12
P 6100 8100
F 0 "P1" H 6100 8350 50  0000 C CNN
F 1 "CONN_01X04" V 6200 8100 50  0000 C CNN
F 2 "Pin_Headers:Pin_Header_Straight_1x04" H 6100 8100 50  0001 C CNN
F 3 "" H 6100 8100 50  0000 C CNN
	1    6100 8100
	1    0    0    -1  
$EndComp
$Comp
L C C2
U 1 1 579DBF32
P 5500 8600
F 0 "C2" H 5525 8700 50  0000 L CNN
F 1 "100nF" H 5525 8500 50  0000 L CNN
F 2 "Capacitors_ThroughHole:C_Rect_L7_W2_P5" H 5538 8450 50  0001 C CNN
F 3 "" H 5500 8600 50  0000 C CNN
	1    5500 8600
	1    0    0    -1  
$EndComp
Text GLabel 5350 7850 1    60   Input ~ 0
5V
Text GLabel 5500 7850 1    60   Input ~ 0
0V
Text GLabel 5650 7850 1    60   Input ~ 0
SDA
Text GLabel 5800 7850 1    60   Input ~ 0
SCL
Wire Wire Line
	4900 7750 4900 8700
Wire Wire Line
	4700 9200 5800 9200
Wire Wire Line
	4700 9200 4700 7750
Wire Wire Line
	2250 1950 2250 9200
Wire Wire Line
	2250 4650 3300 4650
Wire Wire Line
	3300 8600 2400 8600
Wire Wire Line
	2400 8600 2400 4700
Wire Wire Line
	2400 4700 3700 4700
Wire Wire Line
	3700 4700 3700 4500
Wire Wire Line
	4400 9150 4400 7750
Wire Wire Line
	2950 9150 4400 9150
Wire Wire Line
	2950 9150 2950 5250
Wire Wire Line
	2950 5250 4800 5250
Wire Wire Line
	3400 7750 3400 8650
Wire Wire Line
	3400 8650 2450 8650
Wire Wire Line
	2450 8650 2450 4750
Wire Wire Line
	2450 4750 3800 4750
Wire Wire Line
	3800 4750 3800 4500
Wire Wire Line
	3300 4650 3300 4500
Wire Wire Line
	3500 7750 3500 8700
Wire Wire Line
	3500 8700 2500 8700
Wire Wire Line
	2500 8700 2500 4800
Wire Wire Line
	2500 4800 3900 4800
Wire Wire Line
	3900 4800 3900 4500
Wire Wire Line
	4000 4500 4000 4850
Wire Wire Line
	4000 4850 2550 4850
Wire Wire Line
	2550 4850 2550 8750
Wire Wire Line
	2550 8750 3600 8750
Wire Wire Line
	3600 8750 3600 7750
Wire Wire Line
	3700 7750 3700 8800
Wire Wire Line
	3700 8800 2600 8800
Wire Wire Line
	2600 8800 2600 4900
Wire Wire Line
	2600 4900 4100 4900
Wire Wire Line
	4100 4900 4100 4500
Wire Wire Line
	4200 4500 4200 4950
Wire Wire Line
	4200 4950 2650 4950
Wire Wire Line
	2650 4950 2650 8850
Wire Wire Line
	2650 8850 3800 8850
Wire Wire Line
	3800 8850 3800 7750
Wire Wire Line
	3900 7750 3900 8900
Wire Wire Line
	3900 8900 2700 8900
Wire Wire Line
	2700 8900 2700 5000
Wire Wire Line
	2700 5000 4300 5000
Wire Wire Line
	4300 5000 4300 4500
Wire Wire Line
	4000 7750 4000 8950
Wire Wire Line
	4000 8950 2750 8950
Wire Wire Line
	2750 8950 2750 5050
Wire Wire Line
	2750 5050 4400 5050
Wire Wire Line
	4400 5050 4400 4500
Wire Wire Line
	4500 5100 4500 4500
Wire Wire Line
	2800 5100 4500 5100
Wire Wire Line
	2800 5100 2800 9000
Wire Wire Line
	2800 9000 4100 9000
Wire Wire Line
	4100 9000 4100 7750
Wire Wire Line
	4200 9050 4200 7750
Wire Wire Line
	2850 9050 4200 9050
Wire Wire Line
	2850 9050 2850 5150
Wire Wire Line
	2850 5150 4600 5150
Wire Wire Line
	4600 5150 4600 4500
Wire Wire Line
	4300 7750 4300 9100
Wire Wire Line
	4300 9100 2900 9100
Wire Wire Line
	2900 9100 2900 5200
Wire Wire Line
	2900 5200 4700 5200
Wire Wire Line
	4700 5200 4700 4500
Wire Wire Line
	4800 5250 4800 4500
Wire Wire Line
	2250 1950 3300 1950
Wire Wire Line
	3300 6350 3300 5300
Wire Wire Line
	3300 5300 5450 5300
Wire Wire Line
	5450 5300 5450 1850
Wire Wire Line
	5450 1850 3600 1850
Wire Wire Line
	3600 1850 3600 1950
Wire Wire Line
	3400 6350 3400 5350
Wire Wire Line
	3400 5350 5500 5350
Wire Wire Line
	5500 5350 5500 1800
Wire Wire Line
	5500 1800 3700 1800
Wire Wire Line
	3700 1800 3700 1950
Wire Wire Line
	3500 5400 5550 5400
Wire Wire Line
	5550 5400 5550 1750
Wire Wire Line
	3800 1750 3800 1950
Wire Wire Line
	3600 6350 3600 5450
Wire Wire Line
	3600 5450 5600 5450
Wire Wire Line
	5600 5450 5600 1700
Wire Wire Line
	5600 1700 3900 1700
Wire Wire Line
	3900 1700 3900 1950
Wire Wire Line
	3700 5500 3700 6350
Wire Wire Line
	3700 5500 5650 5500
Wire Wire Line
	5650 5500 5650 1650
Wire Wire Line
	5650 1650 4100 1650
Wire Wire Line
	4100 1650 4100 1950
Wire Wire Line
	3800 6350 3800 5550
Wire Wire Line
	3800 5550 5700 5550
Wire Wire Line
	5700 5550 5700 1600
Wire Wire Line
	5700 1600 4200 1600
Wire Wire Line
	4200 1600 4200 1950
Wire Wire Line
	3900 5600 3900 6350
Wire Wire Line
	3900 5600 5750 5600
Wire Wire Line
	5750 5600 5750 1550
Wire Wire Line
	5750 1550 4300 1550
Wire Wire Line
	4300 1550 4300 1950
Wire Wire Line
	4000 6350 4000 5650
Wire Wire Line
	4000 5650 5800 5650
Wire Wire Line
	5800 5650 5800 1500
Wire Wire Line
	5800 1500 4400 1500
Wire Wire Line
	4400 1500 4400 1950
Wire Wire Line
	4100 6350 4100 5700
Wire Wire Line
	4100 5700 5850 5700
Wire Wire Line
	5850 5700 5850 1450
Wire Wire Line
	5850 1450 4500 1450
Wire Wire Line
	4500 1450 4500 1950
Wire Wire Line
	4200 6350 4200 5750
Wire Wire Line
	4200 5750 5900 5750
Wire Wire Line
	5900 5750 5900 1400
Wire Wire Line
	5900 1400 4600 1400
Wire Wire Line
	4600 1400 4600 1950
Wire Wire Line
	4700 1950 4700 1350
Wire Wire Line
	4700 1350 5950 1350
Wire Wire Line
	5950 1350 5950 5800
Wire Wire Line
	5950 5800 4300 5800
Wire Wire Line
	4300 5800 4300 6350
Wire Wire Line
	4400 6350 4400 5850
Wire Wire Line
	4400 5850 6000 5850
Wire Wire Line
	6000 5850 6000 1300
Wire Wire Line
	6000 1300 4800 1300
Wire Wire Line
	4800 1300 4800 1950
Wire Wire Line
	3300 8600 3300 7750
Wire Wire Line
	4500 6350 4500 5900
Wire Wire Line
	4500 5900 6050 5900
Wire Wire Line
	6050 5900 6050 1250
Wire Wire Line
	6050 1250 4900 1250
Wire Wire Line
	4900 1250 4900 1950
Wire Wire Line
	4600 6350 4600 5950
Wire Wire Line
	4600 5950 6100 5950
Wire Wire Line
	6100 5950 6100 1200
Wire Wire Line
	6100 1200 5000 1200
Wire Wire Line
	5000 1200 5000 1950
Wire Wire Line
	5100 1950 5100 1150
Wire Wire Line
	5100 1150 6150 1150
Wire Wire Line
	6150 1150 6150 6000
Wire Wire Line
	6150 6000 4700 6000
Wire Wire Line
	4700 6000 4700 6350
Wire Wire Line
	4800 6350 4800 6050
Wire Wire Line
	4800 6050 6200 6050
Wire Wire Line
	6200 6050 6200 1100
Wire Wire Line
	6200 1100 5200 1100
Wire Wire Line
	5200 1100 5200 1950
Wire Wire Line
	4900 6350 4900 6100
Wire Wire Line
	4900 6100 6250 6100
Wire Wire Line
	6250 6100 6250 4900
Wire Wire Line
	6300 4850 6300 6150
Wire Wire Line
	6300 6150 5000 6150
Wire Wire Line
	5000 6150 5000 6350
Wire Wire Line
	5100 6350 5100 6200
Wire Wire Line
	5100 6200 6350 6200
Wire Wire Line
	6350 6200 6350 4800
Wire Wire Line
	6350 4800 5100 4800
Wire Wire Line
	5100 4800 5100 4500
Wire Wire Line
	5200 6350 5200 6250
Wire Wire Line
	5200 6250 6400 6250
Wire Wire Line
	6400 6250 6400 4750
Wire Wire Line
	6400 4750 5200 4750
Wire Wire Line
	5200 4750 5200 4500
Wire Wire Line
	2250 9200 4500 9200
Wire Wire Line
	4500 9200 4500 7750
Wire Wire Line
	6300 4850 5000 4850
Wire Wire Line
	5000 4850 5000 4500
Wire Wire Line
	6250 4900 4900 4900
Wire Wire Line
	4900 4900 4900 4500
Wire Wire Line
	4600 8150 5900 8150
Wire Wire Line
	5100 8050 5900 8050
Wire Wire Line
	5100 8050 5100 7750
Wire Wire Line
	5200 7950 5900 7950
Wire Wire Line
	5200 7950 5200 7750
Wire Wire Line
	5800 9200 5800 8250
Wire Wire Line
	5800 8250 5900 8250
Wire Wire Line
	5500 7850 5500 8450
Connection ~ 5500 8150
Wire Wire Line
	5500 8750 5500 9200
Connection ~ 5500 9200
Connection ~ 2250 4650
Wire Wire Line
	5000 7750 5000 8300
Wire Wire Line
	5000 8600 5000 8800
Wire Wire Line
	5000 9100 5000 9200
Connection ~ 5000 9200
Wire Wire Line
	4900 8700 5000 8700
Connection ~ 5000 8700
Connection ~ 5000 8150
Wire Wire Line
	5350 7850 5350 9200
Connection ~ 5350 9200
Wire Wire Line
	5650 7850 5650 7950
Connection ~ 5650 7950
Wire Wire Line
	5800 7850 5800 8050
Connection ~ 5800 8050
Wire Wire Line
	5550 1750 3800 1750
Wire Wire Line
	3500 6350 3500 5400
Wire Wire Line
	4600 8150 4600 7750
Wire Wire Line
	4800 7750 4800 8150
Connection ~ 4800 8150
$EndSCHEMATC
