EESchema Schematic File Version 2
LIBS:power
LIBS:device
LIBS:transistors
LIBS:conn
LIBS:linear
LIBS:regul
LIBS:74xx
LIBS:cmos4000
LIBS:adc-dac
LIBS:memory
LIBS:xilinx
LIBS:microcontrollers
LIBS:dsp
LIBS:microchip
LIBS:analog_switches
LIBS:motorola
LIBS:texas
LIBS:intel
LIBS:audio
LIBS:interface
LIBS:digital-audio
LIBS:philips
LIBS:display
LIBS:cypress
LIBS:siliconi
LIBS:opto
LIBS:atmel
LIBS:contrib
LIBS:valves
LIBS:my-microcontrollers
LIBS:my-misc-modules
LIBS:my-displays
LIBS:74hc595-LCD-cache
EELAYER 25 0
EELAYER END
$Descr A4 8268 11693 portrait
encoding utf-8
Sheet 1 1
Title ""
Date ""
Rev ""
Comp ""
Comment1 ""
Comment2 ""
Comment3 ""
Comment4 ""
$EndDescr
$Comp
L arduino_nano U1
U 1 1 5C56E3A6
P 2650 6350
F 0 "U1" H 2950 5300 70  0000 C CNN
F 1 "arduino_nano" H 2950 5550 70  0000 C CNN
F 2 "DIL30" H 2950 6300 60  0000 C CNN
F 3 "" H 2650 6350 60  0000 C CNN
	1    2650 6350
	1    0    0    -1  
$EndComp
$Comp
L 74HC595 U2
U 1 1 5C56E3D5
P 5100 6500
F 0 "U2" H 5250 7100 50  0000 C CNN
F 1 "74HC595" H 5100 5900 50  0000 C CNN
F 2 "" H 5100 6500 50  0000 C CNN
F 3 "" H 5100 6500 50  0000 C CNN
	1    5100 6500
	1    0    0    -1  
$EndComp
$Comp
L GND #PWR2
U 1 1 5C56E5DF
P 1750 7650
F 0 "#PWR2" H 1750 7400 50  0001 C CNN
F 1 "GND" H 1750 7500 50  0000 C CNN
F 2 "" H 1750 7650 50  0000 C CNN
F 3 "" H 1750 7650 50  0000 C CNN
	1    1750 7650
	1    0    0    -1  
$EndComp
$Comp
L GND #PWR4
U 1 1 5C56F106
P 4300 6750
F 0 "#PWR4" H 4300 6500 50  0001 C CNN
F 1 "GND" H 4300 6600 50  0000 C CNN
F 2 "" H 4300 6750 50  0000 C CNN
F 3 "" H 4300 6750 50  0000 C CNN
	1    4300 6750
	1    0    0    -1  
$EndComp
$Comp
L +5V #PWR1
U 1 1 5C56F23F
P 1750 6950
F 0 "#PWR1" H 1750 6800 50  0001 C CNN
F 1 "+5V" H 1750 7090 50  0000 C CNN
F 2 "" H 1750 6950 50  0000 C CNN
F 3 "" H 1750 6950 50  0000 C CNN
	1    1750 6950
	1    0    0    -1  
$EndComp
$Comp
L +5V #PWR3
U 1 1 5C56F2CD
P 4300 5950
F 0 "#PWR3" H 4300 5800 50  0001 C CNN
F 1 "+5V" H 4300 6090 50  0000 C CNN
F 2 "" H 4300 5950 50  0000 C CNN
F 3 "" H 4300 5950 50  0000 C CNN
	1    4300 5950
	1    0    0    -1  
$EndComp
$Comp
L 74HC595 U3
U 1 1 5C5839E3
P 5100 7900
F 0 "U3" H 5250 8500 50  0000 C CNN
F 1 "74HC595" H 5100 7300 50  0000 C CNN
F 2 "" H 5100 7900 50  0000 C CNN
F 3 "" H 5100 7900 50  0000 C CNN
	1    5100 7900
	1    0    0    -1  
$EndComp
$Comp
L VI-402-DP U?
U 1 1 5C58503A
P 2800 1500
F 0 "U?" H 4800 450 60  0000 C CNN
F 1 "VI-402-DP" H 4300 450 60  0000 C CNN
F 2 "" H 5250 -900 60  0000 C CNN
F 3 "" H 5250 -900 60  0000 C CNN
	1    2800 1500
	1    0    0    -1  
$EndComp
Wire Wire Line
	1750 7650 1750 7450
Wire Wire Line
	1750 7450 1950 7450
Wire Wire Line
	4000 6550 4400 6550
Wire Wire Line
	4000 6400 4200 6400
Wire Wire Line
	4200 6250 4200 7650
Wire Wire Line
	4200 6250 4400 6250
Wire Wire Line
	4400 6050 4100 6050
Wire Wire Line
	4100 6700 4000 6700
Wire Wire Line
	4300 6650 4400 6650
Wire Wire Line
	1750 6950 1750 7150
Wire Wire Line
	1750 7150 1950 7150
Wire Wire Line
	4300 5950 4300 6350
Wire Wire Line
	4300 6350 4400 6350
Wire Wire Line
	4300 6750 4300 6650
Wire Wire Line
	4200 7650 4400 7650
Connection ~ 4200 6400
Wire Wire Line
	4100 6050 4100 6700
Wire Wire Line
	5800 6950 5850 6950
Wire Wire Line
	5850 6950 5850 7200
Wire Wire Line
	5850 7200 4250 7200
Wire Wire Line
	4250 7200 4250 7450
Wire Wire Line
	4250 7450 4400 7450
Wire Wire Line
	4400 7950 4150 7950
Wire Wire Line
	4150 7950 4150 6550
Connection ~ 4150 6550
Wire Wire Line
	3600 2000 3600 1900
Wire Wire Line
	3600 1900 3300 1900
Wire Wire Line
	3300 1900 3300 5000
Wire Wire Line
	1800 5000 3600 5000
Wire Wire Line
	3600 5000 3600 4550
Connection ~ 3300 5000
Wire Wire Line
	6300 1650 6300 7450
Wire Wire Line
	6350 1600 6350 7550
Wire Wire Line
	6400 5050 6400 7650
Wire Wire Line
	6450 5000 6450 7750
Wire Wire Line
	6500 4950 6500 7850
Wire Wire Line
	6550 1550 6550 7950
Wire Wire Line
	6600 1500 6600 8050
Wire Wire Line
	6650 4900 6650 8150
Wire Wire Line
	5900 1850 5900 6050
Wire Wire Line
	5950 4850 5950 6150
Wire Wire Line
	6000 4800 6000 6250
Wire Wire Line
	6050 6350 6050 4750
Wire Wire Line
	6100 6450 6100 4700
Wire Wire Line
	6150 6550 6150 1750
Wire Wire Line
	6200 6650 6200 1700
Wire Wire Line
	1950 5500 1800 5500
Wire Wire Line
	1800 5500 1800 5000
Wire Wire Line
	5900 6050 5800 6050
Wire Wire Line
	5950 6150 5800 6150
Wire Wire Line
	6000 6250 5800 6250
Wire Wire Line
	5800 6350 6050 6350
Wire Wire Line
	6100 6450 5800 6450
Wire Wire Line
	5800 6550 6150 6550
Wire Wire Line
	6200 6650 5800 6650
Wire Wire Line
	6300 7450 5800 7450
Wire Wire Line
	6350 7550 5800 7550
Wire Wire Line
	6400 7650 5800 7650
Wire Wire Line
	6450 7750 5800 7750
Wire Wire Line
	6500 7850 5800 7850
Wire Wire Line
	6550 7950 5800 7950
Wire Wire Line
	6600 8050 5800 8050
Wire Wire Line
	6650 8150 5800 8150
Wire Wire Line
	5900 1850 5500 1850
Wire Wire Line
	5500 1850 5500 2000
Wire Wire Line
	5950 4850 5500 4850
Wire Wire Line
	5500 4850 5500 4550
Wire Wire Line
	6000 4800 5400 4800
Wire Wire Line
	5400 4800 5400 4550
Wire Wire Line
	6050 4750 5300 4750
Wire Wire Line
	5300 4750 5300 4550
Wire Wire Line
	6100 4700 5200 4700
Wire Wire Line
	5200 4700 5200 4550
Wire Wire Line
	6150 1750 5400 1750
Wire Wire Line
	5400 1750 5400 2000
Wire Wire Line
	6200 1700 5300 1700
Wire Wire Line
	5300 1700 5300 2000
Wire Wire Line
	6300 1650 5100 1650
Wire Wire Line
	5100 1650 5100 2000
Wire Wire Line
	6350 1600 5200 1600
Wire Wire Line
	5200 1600 5200 2000
Wire Wire Line
	6550 1550 5000 1550
Wire Wire Line
	5000 1550 5000 2000
Wire Wire Line
	6600 1500 4900 1500
Wire Wire Line
	4900 1500 4900 2000
Wire Wire Line
	6400 5050 5000 5050
Wire Wire Line
	5000 5050 5000 4550
Wire Wire Line
	4900 4550 4900 5000
Wire Wire Line
	4900 5000 6450 5000
Wire Wire Line
	6500 4950 4800 4950
Wire Wire Line
	4800 4950 4800 4550
Wire Wire Line
	6650 4900 5100 4900
Wire Wire Line
	5100 4900 5100 4550
Wire Wire Line
	4800 2000 4800 1800
Wire Wire Line
	4800 1800 6250 1800
Wire Wire Line
	6250 1800 6250 6750
Wire Wire Line
	6250 6750 5800 6750
$EndSCHEMATC
